\relax 
\providecommand\hyper@newdestlabel[2]{}
\providecommand*\new@tpo@label[2]{}
\catcode `"\active 
\providecommand\HyperFirstAtBeginDocument{\AtBeginDocument}
\HyperFirstAtBeginDocument{\ifx\hyper@anchor\@undefined
\global\let\oldcontentsline\contentsline
\gdef\contentsline#1#2#3#4{\oldcontentsline{#1}{#2}{#3}}
\global\let\oldnewlabel\newlabel
\gdef\newlabel#1#2{\newlabelxx{#1}#2}
\gdef\newlabelxx#1#2#3#4#5#6{\oldnewlabel{#1}{{#2}{#3}}}
\AtEndDocument{\ifx\hyper@anchor\@undefined
\let\contentsline\oldcontentsline
\let\newlabel\oldnewlabel
\fi}
\fi}
\global\let\hyper@last\relax 
\gdef\HyperFirstAtBeginDocument#1{#1}
\providecommand\HyField@AuxAddToFields[1]{}
\providecommand\HyField@AuxAddToCoFields[2]{}
\bibstyle{biblatex}
\bibdata{thesis_main-blx,./literatur/literatur}
\citation{biblatex-control}
\abx@aux@sortscheme{nty}
\abx@aux@refcontext{nty/global/}
\@writefile{toc}{\boolfalse {citerequest}\boolfalse {citetracker}\boolfalse {pagetracker}\boolfalse {backtracker}\relax }
\@writefile{lof}{\boolfalse {citerequest}\boolfalse {citetracker}\boolfalse {pagetracker}\boolfalse {backtracker}\relax }
\@writefile{lot}{\boolfalse {citerequest}\boolfalse {citetracker}\boolfalse {pagetracker}\boolfalse {backtracker}\relax }
\select@language{ngerman}
\@writefile{toc}{\defcounter {refsection}{0}\relax }\@writefile{toc}{\select@language{ngerman}}
\@writefile{lof}{\defcounter {refsection}{0}\relax }\@writefile{lof}{\select@language{ngerman}}
\@writefile{lot}{\defcounter {refsection}{0}\relax }\@writefile{lot}{\select@language{ngerman}}
\@writefile{toc}{\defcounter {refsection}{0}\relax }\@writefile{toc}{\contentsline {section}{\nonumberline Abbildungsverzeichnis}{IV}{section*.2}}
\@writefile{toc}{\defcounter {refsection}{0}\relax }\@writefile{toc}{\contentsline {section}{\numberline {1}Einleitung}{1}{section.1}}
\@writefile{toc}{\defcounter {refsection}{0}\relax }\@writefile{toc}{\contentsline {subsection}{\numberline {1.1}Erkl\IeC {\"a}rung des Themas}{1}{subsection.1.1}}
\@writefile{toc}{\defcounter {refsection}{0}\relax }\@writefile{toc}{\contentsline {subsection}{\numberline {1.2}Zielsetzung}{1}{subsection.1.2}}
\@writefile{toc}{\defcounter {refsection}{0}\relax }\@writefile{toc}{\contentsline {subsection}{\numberline {1.3}Aufbau der Arbeit}{1}{subsection.1.3}}
\@writefile{toc}{\defcounter {refsection}{0}\relax }\@writefile{toc}{\contentsline {subsection}{\numberline {1.4}Abgrenzung}{1}{subsection.1.4}}
\citation{website:istqb:history}
\abx@aux@cite{website:istqb:history}
\abx@aux@segm{0}{0}{website:istqb:history}
\citation{website:istqb:vision&mission}
\abx@aux@cite{website:istqb:vision&mission}
\abx@aux@segm{0}{0}{website:istqb:vision&mission}
\citation{website:istqb:vision&mission}
\abx@aux@segm{0}{0}{website:istqb:vision&mission}
\@writefile{toc}{\defcounter {refsection}{0}\relax }\@writefile{toc}{\contentsline {section}{\numberline {2}International Software Testing Qualifications Board}{3}{section.2}}
\@writefile{toc}{\defcounter {refsection}{0}\relax }\@writefile{toc}{\contentsline {subsection}{\numberline {2.1}Entstehung des ISTQB}{3}{subsection.2.1}}
\@writefile{toc}{\defcounter {refsection}{0}\relax }\@writefile{toc}{\contentsline {subsection}{\numberline {2.2}Mission und Vision}{3}{subsection.2.2}}
\@writefile{toc}{\defcounter {refsection}{0}\relax }\@writefile{toc}{\contentsline {subsubsection}{\numberline {2.2.1}ISTQB Vision}{3}{subsubsection.2.2.1}}
\@writefile{toc}{\defcounter {refsection}{0}\relax }\@writefile{toc}{\contentsline {subsubsection}{\numberline {2.2.2}ISTQB Mission}{3}{subsubsection.2.2.2}}
\citation{website:istqb:FoundationNutshell}
\abx@aux@cite{website:istqb:FoundationNutshell}
\abx@aux@segm{0}{0}{website:istqb:FoundationNutshell}
\citation{website:istqb:AdvancedNutshell}
\abx@aux@cite{website:istqb:AdvancedNutshell}
\abx@aux@segm{0}{0}{website:istqb:AdvancedNutshell}
\@writefile{toc}{\defcounter {refsection}{0}\relax }\@writefile{toc}{\contentsline {subsection}{\numberline {2.3}Zertifizierungen}{4}{subsection.2.3}}
\@writefile{toc}{\defcounter {refsection}{0}\relax }\@writefile{toc}{\contentsline {subsubsection}{\numberline {2.3.1}Foundation Level}{4}{subsubsection.2.3.1}}
\@writefile{toc}{\defcounter {refsection}{0}\relax }\@writefile{toc}{\contentsline {subsubsection}{\numberline {2.3.2}Advanced Level}{4}{subsubsection.2.3.2}}
\citation{website:istqb:ExpertNutshell}
\abx@aux@cite{website:istqb:ExpertNutshell}
\abx@aux@segm{0}{0}{website:istqb:ExpertNutshell}
\@writefile{toc}{\defcounter {refsection}{0}\relax }\@writefile{toc}{\contentsline {subsubsection}{\numberline {2.3.3}Expert Level}{5}{subsubsection.2.3.3}}
\citation{BasiswissenSoftwaretest}
\abx@aux@cite{BasiswissenSoftwaretest}
\abx@aux@segm{0}{0}{BasiswissenSoftwaretest}
\citation{BasiswissenSoftwaretest}
\abx@aux@segm{0}{0}{BasiswissenSoftwaretest}
\@writefile{toc}{\defcounter {refsection}{0}\relax }\@writefile{toc}{\contentsline {section}{\numberline {3}Fundamentaler Testprozess}{6}{section.3}}
\@writefile{lof}{\defcounter {refsection}{0}\relax }\@writefile{lof}{\contentsline {figure}{\numberline {1}{\ignorespaces FundamentalerTestprozess}}{6}{figure.caption.3}}
\providecommand*\caption@xref[2]{\@setref\relax\@undefined{#1}}
\newlabel{Fundamentaler Testprozess von Finke}{{1}{6}{FundamentalerTestprozess}{figure.caption.3}{}}
\@writefile{toc}{\defcounter {refsection}{0}\relax }\@writefile{toc}{\contentsline {subsection}{\numberline {3.1}Testplanung und Steuerung}{6}{subsection.3.1}}
\@writefile{toc}{\defcounter {refsection}{0}\relax }\@writefile{toc}{\contentsline {subsubsection}{\numberline {3.1.1}Testplanung}{6}{subsubsection.3.1.1}}
\citation{BasiswissenSoftwaretest}
\abx@aux@segm{0}{0}{BasiswissenSoftwaretest}
\citation{BasiswissenSoftwaretest}
\abx@aux@segm{0}{0}{BasiswissenSoftwaretest}
\citation{BasiswissenSoftwaretest}
\abx@aux@segm{0}{0}{BasiswissenSoftwaretest}
\@writefile{toc}{\defcounter {refsection}{0}\relax }\@writefile{toc}{\contentsline {subsubsection}{\numberline {3.1.2}Teststeuerung}{7}{subsubsection.3.1.2}}
\@writefile{toc}{\defcounter {refsection}{0}\relax }\@writefile{toc}{\contentsline {subsection}{\numberline {3.2}Testanalyse und Testentwurf}{7}{subsection.3.2}}
\@writefile{toc}{\defcounter {refsection}{0}\relax }\@writefile{toc}{\contentsline {subsubsection}{\numberline {3.2.1}Testanalyse}{7}{subsubsection.3.2.1}}
\@writefile{toc}{\defcounter {refsection}{0}\relax }\@writefile{toc}{\contentsline {subsubsection}{\numberline {3.2.2}Testentwurf}{7}{subsubsection.3.2.2}}
\citation{BasiswissenSoftwaretest}
\abx@aux@segm{0}{0}{BasiswissenSoftwaretest}
\citation{BasiswissenSoftwaretest}
\abx@aux@segm{0}{0}{BasiswissenSoftwaretest}
\citation{BasiswissenSoftwaretest}
\abx@aux@segm{0}{0}{BasiswissenSoftwaretest}
\@writefile{toc}{\defcounter {refsection}{0}\relax }\@writefile{toc}{\contentsline {subsection}{\numberline {3.3}Testrealisierung und Testdurchf\IeC {\"u}hrung}{8}{subsection.3.3}}
\@writefile{toc}{\defcounter {refsection}{0}\relax }\@writefile{toc}{\contentsline {subsection}{\numberline {3.4}Bewertung von Endkriterien und Bericht}{8}{subsection.3.4}}
\@writefile{toc}{\defcounter {refsection}{0}\relax }\@writefile{toc}{\contentsline {subsection}{\numberline {3.5}Abschluss der Testaktivit\IeC {\"a}ten}{8}{subsection.3.5}}
\@writefile{toc}{\defcounter {refsection}{0}\relax }\@writefile{toc}{\contentsline {section}{\numberline {4}Teststufen}{9}{section.4}}
\@writefile{toc}{\defcounter {refsection}{0}\relax }\@writefile{toc}{\contentsline {subsection}{\numberline {4.1}Testing in einem Vorgehensmodell}{9}{subsection.4.1}}
\@writefile{lof}{\defcounter {refsection}{0}\relax }\@writefile{lof}{\contentsline {figure}{\numberline {2}{\ignorespaces V-Modell}}{9}{figure.caption.4}}
\newlabel{V-Modell}{{2}{9}{V-Modell}{figure.caption.4}{}}
\@writefile{lof}{\defcounter {refsection}{0}\relax }\@writefile{lof}{\contentsline {figure}{\numberline {3}{\ignorespaces V-Modell nach Boehm}}{10}{figure.caption.5}}
\newlabel{V-Modell nach Boehm}{{3}{10}{V-Modell nach Boehm}{figure.caption.5}{}}
\@writefile{toc}{\defcounter {refsection}{0}\relax }\@writefile{toc}{\contentsline {subsection}{\numberline {4.2}Modultest}{10}{subsection.4.2}}
\@writefile{toc}{\defcounter {refsection}{0}\relax }\@writefile{toc}{\contentsline {subsection}{\numberline {4.3}Integrationstest}{11}{subsection.4.3}}
\@writefile{toc}{\defcounter {refsection}{0}\relax }\@writefile{toc}{\contentsline {subsection}{\numberline {4.4}Systemtest}{11}{subsection.4.4}}
\@writefile{toc}{\defcounter {refsection}{0}\relax }\@writefile{toc}{\contentsline {subsection}{\numberline {4.5}Abnahmetest}{11}{subsection.4.5}}
\citation{FoundationLevelSylllabus}
\abx@aux@cite{FoundationLevelSylllabus}
\abx@aux@segm{0}{0}{FoundationLevelSylllabus}
\@writefile{toc}{\defcounter {refsection}{0}\relax }\@writefile{toc}{\contentsline {subsubsection}{\numberline {4.5.1}Anwender-Abnahmetest}{12}{subsubsection.4.5.1}}
\@writefile{toc}{\defcounter {refsection}{0}\relax }\@writefile{toc}{\contentsline {subsubsection}{\numberline {4.5.2}Betrieblicher Abnahmetest}{12}{subsubsection.4.5.2}}
\@writefile{toc}{\defcounter {refsection}{0}\relax }\@writefile{toc}{\contentsline {subsubsection}{\numberline {4.5.3}Vertraglicher und regulatorischer Abnahmetest}{12}{subsubsection.4.5.3}}
\@writefile{toc}{\defcounter {refsection}{0}\relax }\@writefile{toc}{\contentsline {subsubsection}{\numberline {4.5.4}Alpha- und Beta-Test}{12}{subsubsection.4.5.4}}
\citation{FoundationLevelSyllabus}
\abx@aux@cite{FoundationLevelSyllabus}
\abx@aux@segm{0}{0}{FoundationLevelSyllabus}
\citation{FoundationLevelSyllabus}
\abx@aux@segm{0}{0}{FoundationLevelSyllabus}
\citation{BasiswissenSoftwaretest}
\abx@aux@segm{0}{0}{BasiswissenSoftwaretest}
\citation{FoundationLevelSyllabus}
\abx@aux@segm{0}{0}{FoundationLevelSyllabus}
\citation{BasiswissenSoftwaretest}
\abx@aux@segm{0}{0}{BasiswissenSoftwaretest}
\@writefile{toc}{\defcounter {refsection}{0}\relax }\@writefile{toc}{\contentsline {section}{\numberline {5}Testarten}{13}{section.5}}
\@writefile{toc}{\defcounter {refsection}{0}\relax }\@writefile{toc}{\contentsline {subsubsection}{\numberline {5.0.1}Funktionaler Test}{13}{subsubsection.5.0.1}}
\@writefile{toc}{\defcounter {refsection}{0}\relax }\@writefile{toc}{\contentsline {subsubsection}{\numberline {5.0.2}Nicht-funktionaler Test}{13}{subsubsection.5.0.2}}
\citation{FoundationLevelSyllabus}
\abx@aux@segm{0}{0}{FoundationLevelSyllabus}
\citation{FoundationLevelSyllabus}
\abx@aux@segm{0}{0}{FoundationLevelSyllabus}
\citation{FoundationLevelSyllabus}
\abx@aux@segm{0}{0}{FoundationLevelSyllabus}
\@writefile{toc}{\defcounter {refsection}{0}\relax }\@writefile{toc}{\contentsline {subsubsection}{\numberline {5.0.3}Strukturbasierter Test}{14}{subsubsection.5.0.3}}
\@writefile{toc}{\defcounter {refsection}{0}\relax }\@writefile{toc}{\contentsline {subsubsection}{\numberline {5.0.4}Fehlernachtest und Regressionstest}{14}{subsubsection.5.0.4}}
\@writefile{toc}{\defcounter {refsection}{0}\relax }\@writefile{toc}{\contentsline {subsubsection}{\numberline {5.0.5}Wartungstest}{14}{subsubsection.5.0.5}}
\@writefile{toc}{\defcounter {refsection}{0}\relax }\@writefile{toc}{\contentsline {section}{\numberline {6}Schlussbetrachtung}{16}{section.6}}
\@writefile{toc}{\defcounter {refsection}{0}\relax }\@writefile{toc}{\contentsline {subsection}{\numberline {6.1}Fazit}{16}{subsection.6.1}}
\@writefile{toc}{\defcounter {refsection}{0}\relax }\@writefile{toc}{\contentsline {subsection}{\numberline {6.2}Ausblick}{16}{subsection.6.2}}
\@writefile{toc}{\defcounter {refsection}{0}\relax }\@writefile{toc}{\contentsline {section}{\nonumberline Literaturverzeichnis}{IV}{section*.6}}
\abx@aux@refcontextdefaultsdone
\abx@aux@defaultrefcontext{0}{BasiswissenSoftwaretest}{nty/global/}
\abx@aux@defaultrefcontext{0}{website:istqb:history}{nty/global/}
\abx@aux@defaultrefcontext{0}{website:istqb:FoundationNutshell}{nty/global/}
\abx@aux@defaultrefcontext{0}{website:istqb:AdvancedNutshell}{nty/global/}
\abx@aux@defaultrefcontext{0}{website:istqb:ExpertNutshell}{nty/global/}
\abx@aux@defaultrefcontext{0}{website:istqb:vision&mission}{nty/global/}
\ttl@finishall
\global\@namedef{scr@dte@section@lastmaxnumwidth}{11.47185pt}
\global\@namedef{scr@dte@subsection@lastmaxnumwidth}{19.79993pt}
\global\@namedef{scr@dte@subsubsection@lastmaxnumwidth}{28.79993pt}
