\boolfalse {citerequest}\boolfalse {citetracker}\boolfalse {pagetracker}\boolfalse {backtracker}\relax 
\defcounter {refsection}{0}\relax 
\select@language {ngerman}
\defcounter {refsection}{0}\relax 
\contentsline {figure}{\numberline {1}{\ignorespaces Fundamentaler Testprozess nach Spillner und Linz}}{6}{figure.caption.3}
\defcounter {refsection}{0}\relax 
\contentsline {figure}{\numberline {2}{\ignorespaces V-Modell Spillner und Linz}}{10}{figure.caption.4}
\defcounter {refsection}{0}\relax 
\contentsline {figure}{\numberline {3}{\ignorespaces V-Modell nach Boehm}}{11}{figure.caption.5}
\defcounter {refsection}{0}\relax 
\contentsline {figure}{\numberline {4}{\ignorespaces Anforderungen an den Warenkorb}}{18}{figure.caption.6}
\defcounter {refsection}{0}\relax 
\contentsline {figure}{\numberline {5}{\ignorespaces Teststrategie}}{19}{figure.caption.7}
\defcounter {refsection}{0}\relax 
\contentsline {figure}{\numberline {6}{\ignorespaces Risikoanalyse zu den Warenkorb-Anforderung}}{19}{figure.caption.8}
\defcounter {refsection}{0}\relax 
\contentsline {figure}{\numberline {7}{\ignorespaces Logischer Testfall}}{20}{figure.caption.9}
\defcounter {refsection}{0}\relax 
\contentsline {figure}{\numberline {8}{\ignorespaces Testf\IeC {\"a}lle f\IeC {\"u}r die Versandkosten}}{20}{figure.caption.10}
\contentsfinish 
