\relax 
\providecommand\hyper@newdestlabel[2]{}
\providecommand*\new@tpo@label[2]{}
\catcode `"\active 
\providecommand\HyperFirstAtBeginDocument{\AtBeginDocument}
\HyperFirstAtBeginDocument{\ifx\hyper@anchor\@undefined
\global\let\oldcontentsline\contentsline
\gdef\contentsline#1#2#3#4{\oldcontentsline{#1}{#2}{#3}}
\global\let\oldnewlabel\newlabel
\gdef\newlabel#1#2{\newlabelxx{#1}#2}
\gdef\newlabelxx#1#2#3#4#5#6{\oldnewlabel{#1}{{#2}{#3}}}
\AtEndDocument{\ifx\hyper@anchor\@undefined
\let\contentsline\oldcontentsline
\let\newlabel\oldnewlabel
\fi}
\fi}
\global\let\hyper@last\relax 
\gdef\HyperFirstAtBeginDocument#1{#1}
\providecommand\HyField@AuxAddToFields[1]{}
\providecommand\HyField@AuxAddToCoFields[2]{}
\bibstyle{biblatex}
\bibdata{thesis_main-blx,./literatur/literatur}
\citation{biblatex-control}
\abx@aux@sortscheme{nty}
\abx@aux@refcontext{nty/global/}
\@writefile{toc}{\boolfalse {citerequest}\boolfalse {citetracker}\boolfalse {pagetracker}\boolfalse {backtracker}\relax }
\@writefile{lof}{\boolfalse {citerequest}\boolfalse {citetracker}\boolfalse {pagetracker}\boolfalse {backtracker}\relax }
\@writefile{lot}{\boolfalse {citerequest}\boolfalse {citetracker}\boolfalse {pagetracker}\boolfalse {backtracker}\relax }
\select@language{ngerman}
\@writefile{toc}{\defcounter {refsection}{0}\relax }\@writefile{toc}{\select@language{ngerman}}
\@writefile{lof}{\defcounter {refsection}{0}\relax }\@writefile{lof}{\select@language{ngerman}}
\@writefile{lot}{\defcounter {refsection}{0}\relax }\@writefile{lot}{\select@language{ngerman}}
\@writefile{toc}{\defcounter {refsection}{0}\relax }\@writefile{toc}{\contentsline {section}{\nonumberline Abbildungsverzeichnis}{IV}{section*.2}}
\@writefile{toc}{\defcounter {refsection}{0}\relax }\@writefile{toc}{\contentsline {section}{\numberline {1}Einleitung}{1}{section.1}}
\@writefile{toc}{\defcounter {refsection}{0}\relax }\@writefile{toc}{\contentsline {subsection}{\numberline {1.1}Erkl\IeC {\"a}rung des Themas}{1}{subsection.1.1}}
\@writefile{toc}{\defcounter {refsection}{0}\relax }\@writefile{toc}{\contentsline {subsection}{\numberline {1.2}Zielsetzung}{1}{subsection.1.2}}
\@writefile{toc}{\defcounter {refsection}{0}\relax }\@writefile{toc}{\contentsline {subsection}{\numberline {1.3}Aufbau der Arbeit}{1}{subsection.1.3}}
\@writefile{toc}{\defcounter {refsection}{0}\relax }\@writefile{toc}{\contentsline {subsection}{\numberline {1.4}Abgrenzung}{2}{subsection.1.4}}
\citation{website:istqb:history}
\abx@aux@cite{website:istqb:history}
\abx@aux@segm{0}{0}{website:istqb:history}
\citation{website:istqb:vision_mission}
\abx@aux@cite{website:istqb:vision_mission}
\abx@aux@segm{0}{0}{website:istqb:vision_mission}
\citation{website:istqb:vision_mission}
\abx@aux@segm{0}{0}{website:istqb:vision_mission}
\@writefile{toc}{\defcounter {refsection}{0}\relax }\@writefile{toc}{\contentsline {section}{\numberline {2}International Software Testing Qualifications Board}{3}{section.2}}
\@writefile{toc}{\defcounter {refsection}{0}\relax }\@writefile{toc}{\contentsline {subsection}{\numberline {2.1}Entstehung des ISTQB}{3}{subsection.2.1}}
\@writefile{toc}{\defcounter {refsection}{0}\relax }\@writefile{toc}{\contentsline {subsection}{\numberline {2.2}Mission und Vision}{3}{subsection.2.2}}
\@writefile{toc}{\defcounter {refsection}{0}\relax }\@writefile{toc}{\contentsline {subsubsection}{\numberline {2.2.1}ISTQB Vision}{3}{subsubsection.2.2.1}}
\@writefile{toc}{\defcounter {refsection}{0}\relax }\@writefile{toc}{\contentsline {subsubsection}{\numberline {2.2.2}ISTQB Mission}{3}{subsubsection.2.2.2}}
\citation{website:istqb:FoundationNutshell}
\abx@aux@cite{website:istqb:FoundationNutshell}
\abx@aux@segm{0}{0}{website:istqb:FoundationNutshell}
\citation{website:istqb:AdvancedNutshell}
\abx@aux@cite{website:istqb:AdvancedNutshell}
\abx@aux@segm{0}{0}{website:istqb:AdvancedNutshell}
\@writefile{toc}{\defcounter {refsection}{0}\relax }\@writefile{toc}{\contentsline {subsection}{\numberline {2.3}Zertifizierungen}{4}{subsection.2.3}}
\@writefile{toc}{\defcounter {refsection}{0}\relax }\@writefile{toc}{\contentsline {subsubsection}{\numberline {2.3.1}Foundation Level}{4}{subsubsection.2.3.1}}
\@writefile{toc}{\defcounter {refsection}{0}\relax }\@writefile{toc}{\contentsline {subsubsection}{\numberline {2.3.2}Advanced Level}{4}{subsubsection.2.3.2}}
\citation{website:istqb:ExpertNutshell}
\abx@aux@cite{website:istqb:ExpertNutshell}
\abx@aux@segm{0}{0}{website:istqb:ExpertNutshell}
\@writefile{toc}{\defcounter {refsection}{0}\relax }\@writefile{toc}{\contentsline {subsubsection}{\numberline {2.3.3}Expert Level}{5}{subsubsection.2.3.3}}
\citation{BasiswissenSoftwaretest}
\abx@aux@cite{BasiswissenSoftwaretest}
\abx@aux@segm{0}{0}{BasiswissenSoftwaretest}
\citation{BasiswissenSoftwaretest}
\abx@aux@segm{0}{0}{BasiswissenSoftwaretest}
\citation{BasiswissenSoftwaretest}
\abx@aux@segm{0}{0}{BasiswissenSoftwaretest}
\citation{TM_Softwaretest}
\abx@aux@cite{TM_Softwaretest}
\abx@aux@segm{0}{0}{TM_Softwaretest}
\@writefile{toc}{\defcounter {refsection}{0}\relax }\@writefile{toc}{\contentsline {section}{\numberline {3}Fundamentaler Testprozess}{6}{section.3}}
\@writefile{lof}{\defcounter {refsection}{0}\relax }\@writefile{lof}{\contentsline {figure}{\numberline {1}{\ignorespaces Fundamentaler Testprozess nach Spillner und Linz}}{6}{figure.caption.3}}
\providecommand*\caption@xref[2]{\@setref\relax\@undefined{#1}}
\newlabel{Fundamentaler Testprozess nach Spillner und Linz}{{1}{6}{Fundamentaler Testprozess nach Spillner und Linz}{figure.caption.3}{}}
\citation{BasiswissenSoftwaretest}
\abx@aux@segm{0}{0}{BasiswissenSoftwaretest}
\citation{BasiswissenSoftwaretest}
\abx@aux@segm{0}{0}{BasiswissenSoftwaretest}
\citation{BasiswissenSoftwaretest}
\abx@aux@segm{0}{0}{BasiswissenSoftwaretest}
\@writefile{toc}{\defcounter {refsection}{0}\relax }\@writefile{toc}{\contentsline {subsection}{\numberline {3.1}Testplanung und Steuerung}{7}{subsection.3.1}}
\@writefile{toc}{\defcounter {refsection}{0}\relax }\@writefile{toc}{\contentsline {subsubsection}{\numberline {3.1.1}Testplanung}{7}{subsubsection.3.1.1}}
\@writefile{toc}{\defcounter {refsection}{0}\relax }\@writefile{toc}{\contentsline {subsubsection}{\numberline {3.1.2}Teststeuerung}{7}{subsubsection.3.1.2}}
\@writefile{toc}{\defcounter {refsection}{0}\relax }\@writefile{toc}{\contentsline {subsection}{\numberline {3.2}Testanalyse und Testentwurf}{7}{subsection.3.2}}
\@writefile{toc}{\defcounter {refsection}{0}\relax }\@writefile{toc}{\contentsline {subsubsection}{\numberline {3.2.1}Testanalyse}{7}{subsubsection.3.2.1}}
\citation{BasiswissenSoftwaretest}
\abx@aux@segm{0}{0}{BasiswissenSoftwaretest}
\citation{BasiswissenSoftwaretest}
\abx@aux@segm{0}{0}{BasiswissenSoftwaretest}
\citation{BasiswissenSoftwaretest}
\abx@aux@segm{0}{0}{BasiswissenSoftwaretest}
\@writefile{toc}{\defcounter {refsection}{0}\relax }\@writefile{toc}{\contentsline {subsubsection}{\numberline {3.2.2}Testentwurf}{8}{subsubsection.3.2.2}}
\@writefile{toc}{\defcounter {refsection}{0}\relax }\@writefile{toc}{\contentsline {subsection}{\numberline {3.3}Testrealisierung und Testdurchf\IeC {\"u}hrung}{8}{subsection.3.3}}
\@writefile{toc}{\defcounter {refsection}{0}\relax }\@writefile{toc}{\contentsline {subsection}{\numberline {3.4}Bewertung von Endkriterien und Bericht}{8}{subsection.3.4}}
\@writefile{toc}{\defcounter {refsection}{0}\relax }\@writefile{toc}{\contentsline {subsection}{\numberline {3.5}Abschluss der Testaktivit\IeC {\"a}ten}{9}{subsection.3.5}}
\citation{BasiswissenSoftwaretest}
\abx@aux@segm{0}{0}{BasiswissenSoftwaretest}
\citation{BasiswissenSoftwaretest}
\abx@aux@segm{0}{0}{BasiswissenSoftwaretest}
\citation{Validating_Verifying}
\abx@aux@cite{Validating_Verifying}
\abx@aux@segm{0}{0}{Validating_Verifying}
\citation{HybrideSoftwareentwicklung}
\abx@aux@cite{HybrideSoftwareentwicklung}
\abx@aux@segm{0}{0}{HybrideSoftwareentwicklung}
\@writefile{toc}{\defcounter {refsection}{0}\relax }\@writefile{toc}{\contentsline {section}{\numberline {4}Teststufen}{10}{section.4}}
\@writefile{toc}{\defcounter {refsection}{0}\relax }\@writefile{toc}{\contentsline {subsection}{\numberline {4.1}Testing in einem Vorgehensmodell}{10}{subsection.4.1}}
\@writefile{lof}{\defcounter {refsection}{0}\relax }\@writefile{lof}{\contentsline {figure}{\numberline {2}{\ignorespaces V-Modell Spillner und Linz}}{10}{figure.caption.4}}
\newlabel{V-Modell Spillner und Linz}{{2}{10}{V-Modell Spillner und Linz}{figure.caption.4}{}}
\citation{Validating_Verifying}
\abx@aux@segm{0}{0}{Validating_Verifying}
\citation{FoundationLevelSyllabus}
\abx@aux@cite{FoundationLevelSyllabus}
\abx@aux@segm{0}{0}{FoundationLevelSyllabus}
\citation{ManagingTheTestingProcess}
\abx@aux@cite{ManagingTheTestingProcess}
\abx@aux@segm{0}{0}{ManagingTheTestingProcess}
\@writefile{lof}{\defcounter {refsection}{0}\relax }\@writefile{lof}{\contentsline {figure}{\numberline {3}{\ignorespaces V-Modell nach Boehm}}{11}{figure.caption.5}}
\newlabel{V-Modell nach Boehm}{{3}{11}{V-Modell nach Boehm}{figure.caption.5}{}}
\@writefile{toc}{\defcounter {refsection}{0}\relax }\@writefile{toc}{\contentsline {subsection}{\numberline {4.2}Modultest}{11}{subsection.4.2}}
\citation{FoundationLevelSyllabus}
\abx@aux@segm{0}{0}{FoundationLevelSyllabus}
\citation{ManagingTheTestingProcess}
\abx@aux@segm{0}{0}{ManagingTheTestingProcess}
\citation{FoundationLevelSyllabus}
\abx@aux@segm{0}{0}{FoundationLevelSyllabus}
\citation{FoundationLevelSyllabus}
\abx@aux@segm{0}{0}{FoundationLevelSyllabus}
\@writefile{toc}{\defcounter {refsection}{0}\relax }\@writefile{toc}{\contentsline {subsection}{\numberline {4.3}Integrationstest}{12}{subsection.4.3}}
\@writefile{toc}{\defcounter {refsection}{0}\relax }\@writefile{toc}{\contentsline {subsection}{\numberline {4.4}Systemtest}{12}{subsection.4.4}}
\citation{FoundationLevelSyllabus}
\abx@aux@segm{0}{0}{FoundationLevelSyllabus}
\citation{FoundationLevelSyllabus}
\abx@aux@segm{0}{0}{FoundationLevelSyllabus}
\citation{FoundationLevelSyllabus}
\abx@aux@segm{0}{0}{FoundationLevelSyllabus}
\citation{FoundationLevelSyllabus}
\abx@aux@segm{0}{0}{FoundationLevelSyllabus}
\@writefile{toc}{\defcounter {refsection}{0}\relax }\@writefile{toc}{\contentsline {subsection}{\numberline {4.5}Abnahmetest}{13}{subsection.4.5}}
\@writefile{toc}{\defcounter {refsection}{0}\relax }\@writefile{toc}{\contentsline {subsubsection}{\numberline {4.5.1}Anwender-Abnahmetest}{13}{subsubsection.4.5.1}}
\@writefile{toc}{\defcounter {refsection}{0}\relax }\@writefile{toc}{\contentsline {subsubsection}{\numberline {4.5.2}Betrieblicher Abnahmetest}{13}{subsubsection.4.5.2}}
\@writefile{toc}{\defcounter {refsection}{0}\relax }\@writefile{toc}{\contentsline {subsubsection}{\numberline {4.5.3}Vertraglicher und regulatorischer Abnahmetest}{13}{subsubsection.4.5.3}}
\@writefile{toc}{\defcounter {refsection}{0}\relax }\@writefile{toc}{\contentsline {subsubsection}{\numberline {4.5.4}Alpha- und Beta-Test}{14}{subsubsection.4.5.4}}
\citation{FoundationLevelSyllabus}
\abx@aux@segm{0}{0}{FoundationLevelSyllabus}
\citation{FoundationLevelSyllabus}
\abx@aux@segm{0}{0}{FoundationLevelSyllabus}
\citation{BasiswissenSoftwaretest}
\abx@aux@segm{0}{0}{BasiswissenSoftwaretest}
\citation{FoundationLevelSyllabus}
\abx@aux@segm{0}{0}{FoundationLevelSyllabus}
\citation{BasiswissenSoftwaretest}
\abx@aux@segm{0}{0}{BasiswissenSoftwaretest}
\@writefile{toc}{\defcounter {refsection}{0}\relax }\@writefile{toc}{\contentsline {section}{\numberline {5}Testarten}{15}{section.5}}
\@writefile{toc}{\defcounter {refsection}{0}\relax }\@writefile{toc}{\contentsline {subsection}{\numberline {5.1}Funktionaler Test}{15}{subsection.5.1}}
\@writefile{toc}{\defcounter {refsection}{0}\relax }\@writefile{toc}{\contentsline {subsubsection}{\numberline {5.1.1}Nicht-funktionaler Test}{15}{subsubsection.5.1.1}}
\citation{FoundationLevelSyllabus}
\abx@aux@segm{0}{0}{FoundationLevelSyllabus}
\citation{FoundationLevelSyllabus}
\abx@aux@segm{0}{0}{FoundationLevelSyllabus}
\@writefile{toc}{\defcounter {refsection}{0}\relax }\@writefile{toc}{\contentsline {subsubsection}{\numberline {5.1.2}Strukturbasierter Test}{16}{subsubsection.5.1.2}}
\@writefile{toc}{\defcounter {refsection}{0}\relax }\@writefile{toc}{\contentsline {subsubsection}{\numberline {5.1.3}Fehlernachtest und Regressionstest}{16}{subsubsection.5.1.3}}
\citation{FoundationLevelSyllabus}
\abx@aux@segm{0}{0}{FoundationLevelSyllabus}
\@writefile{toc}{\defcounter {refsection}{0}\relax }\@writefile{toc}{\contentsline {subsubsection}{\numberline {5.1.4}Wartungstest}{17}{subsubsection.5.1.4}}
\@writefile{toc}{\defcounter {refsection}{0}\relax }\@writefile{toc}{\contentsline {section}{\numberline {6}Praxis in einem E-Commerce Projekt}{18}{section.6}}
\@writefile{toc}{\defcounter {refsection}{0}\relax }\@writefile{toc}{\contentsline {subsection}{\numberline {6.1}Vorstellung Projektumfang}{18}{subsection.6.1}}
\@writefile{lof}{\defcounter {refsection}{0}\relax }\@writefile{lof}{\contentsline {figure}{\numberline {4}{\ignorespaces Anforderungen an den Warenkorb}}{18}{figure.caption.6}}
\newlabel{Anforderungen an den Warenkorb}{{4}{18}{Anforderungen an den Warenkorb}{figure.caption.6}{}}
\@writefile{toc}{\defcounter {refsection}{0}\relax }\@writefile{toc}{\contentsline {subsection}{\numberline {6.2}Anwendung auf: Fundamentaler Testprozess}{18}{subsection.6.2}}
\@writefile{toc}{\defcounter {refsection}{0}\relax }\@writefile{toc}{\contentsline {subsubsection}{\numberline {6.2.1}Testplanung und Steuerung}{18}{subsubsection.6.2.1}}
\@writefile{lof}{\defcounter {refsection}{0}\relax }\@writefile{lof}{\contentsline {figure}{\numberline {5}{\ignorespaces Teststrategie}}{19}{figure.caption.7}}
\newlabel{Teststrategie}{{5}{19}{Teststrategie}{figure.caption.7}{}}
\@writefile{lof}{\defcounter {refsection}{0}\relax }\@writefile{lof}{\contentsline {figure}{\numberline {6}{\ignorespaces Risikoanalyse zu den Warenkorb-Anforderung}}{19}{figure.caption.8}}
\newlabel{Risikoanalyse zu den Warenkorb-Anforderung}{{6}{19}{Risikoanalyse zu den Warenkorb-Anforderung}{figure.caption.8}{}}
\@writefile{toc}{\defcounter {refsection}{0}\relax }\@writefile{toc}{\contentsline {subsubsection}{\numberline {6.2.2}Testanalyse und Testentwurf}{19}{subsubsection.6.2.2}}
\@writefile{lof}{\defcounter {refsection}{0}\relax }\@writefile{lof}{\contentsline {figure}{\numberline {7}{\ignorespaces Logischer Testfall}}{20}{figure.caption.9}}
\newlabel{Logischer Testfall}{{7}{20}{Logischer Testfall}{figure.caption.9}{}}
\@writefile{toc}{\defcounter {refsection}{0}\relax }\@writefile{toc}{\contentsline {subsubsection}{\numberline {6.2.3}Testrealisierung und Testdurchf\IeC {\"u}hrung}{20}{subsubsection.6.2.3}}
\@writefile{lof}{\defcounter {refsection}{0}\relax }\@writefile{lof}{\contentsline {figure}{\numberline {8}{\ignorespaces Testf\IeC {\"a}lle f\IeC {\"u}r die Versandkosten}}{20}{figure.caption.10}}
\newlabel{Logischer Testfall}{{8}{20}{Testfälle für die Versandkosten}{figure.caption.10}{}}
\@writefile{toc}{\defcounter {refsection}{0}\relax }\@writefile{toc}{\contentsline {subsubsection}{\numberline {6.2.4}Bewertung von Endkriterien und Bericht}{21}{subsubsection.6.2.4}}
\@writefile{toc}{\defcounter {refsection}{0}\relax }\@writefile{toc}{\contentsline {subsubsection}{\numberline {6.2.5}Abschluss der Testaktivit\IeC {\"a}t}{21}{subsubsection.6.2.5}}
\@writefile{toc}{\defcounter {refsection}{0}\relax }\@writefile{toc}{\contentsline {subsection}{\numberline {6.3}Anwendung auf: Teststufen}{21}{subsection.6.3}}
\@writefile{toc}{\defcounter {refsection}{0}\relax }\@writefile{toc}{\contentsline {subsubsection}{\numberline {6.3.1}Modultest}{21}{subsubsection.6.3.1}}
\@writefile{toc}{\defcounter {refsection}{0}\relax }\@writefile{toc}{\contentsline {subsubsection}{\numberline {6.3.2}Integrationstest}{21}{subsubsection.6.3.2}}
\@writefile{toc}{\defcounter {refsection}{0}\relax }\@writefile{toc}{\contentsline {subsubsection}{\numberline {6.3.3}Systemtest}{22}{subsubsection.6.3.3}}
\@writefile{toc}{\defcounter {refsection}{0}\relax }\@writefile{toc}{\contentsline {subsubsection}{\numberline {6.3.4}Abnahmetest}{22}{subsubsection.6.3.4}}
\@writefile{toc}{\defcounter {refsection}{0}\relax }\@writefile{toc}{\contentsline {subsection}{\numberline {6.4}Anwendung auf: Testarten}{22}{subsection.6.4}}
\@writefile{toc}{\defcounter {refsection}{0}\relax }\@writefile{toc}{\contentsline {subsubsection}{\numberline {6.4.1}Funktionale Tests}{22}{subsubsection.6.4.1}}
\@writefile{toc}{\defcounter {refsection}{0}\relax }\@writefile{toc}{\contentsline {subsubsection}{\numberline {6.4.2}Nicht-Funktionale Tests}{22}{subsubsection.6.4.2}}
\@writefile{toc}{\defcounter {refsection}{0}\relax }\@writefile{toc}{\contentsline {subsubsection}{\numberline {6.4.3}Strukturbezogener Test}{22}{subsubsection.6.4.3}}
\@writefile{toc}{\defcounter {refsection}{0}\relax }\@writefile{toc}{\contentsline {subsubsection}{\numberline {6.4.4}Regressionstest und Fehlernachtest}{23}{subsubsection.6.4.4}}
\@writefile{toc}{\defcounter {refsection}{0}\relax }\@writefile{toc}{\contentsline {subsubsection}{\numberline {6.4.5}Wartungstest}{23}{subsubsection.6.4.5}}
\@writefile{toc}{\defcounter {refsection}{0}\relax }\@writefile{toc}{\contentsline {section}{\numberline {7}Schlussbetrachtung}{24}{section.7}}
\@writefile{toc}{\defcounter {refsection}{0}\relax }\@writefile{toc}{\contentsline {subsection}{\numberline {7.1}Fazit}{24}{subsection.7.1}}
\@writefile{toc}{\defcounter {refsection}{0}\relax }\@writefile{toc}{\contentsline {subsection}{\numberline {7.2}Ausblick}{24}{subsection.7.2}}
\@writefile{toc}{\defcounter {refsection}{0}\relax }\@writefile{toc}{\contentsline {section}{\nonumberline Literaturverzeichnis}{IV}{section*.11}}
\abx@aux@refcontextdefaultsdone
\abx@aux@defaultrefcontext{0}{Validating_Verifying}{nty/global/}
\abx@aux@defaultrefcontext{0}{FoundationLevelSyllabus}{nty/global/}
\abx@aux@defaultrefcontext{0}{ManagingTheTestingProcess}{nty/global/}
\abx@aux@defaultrefcontext{0}{BasiswissenSoftwaretest}{nty/global/}
\abx@aux@defaultrefcontext{0}{HybrideSoftwareentwicklung}{nty/global/}
\abx@aux@defaultrefcontext{0}{TM_Softwaretest}{nty/global/}
\abx@aux@defaultrefcontext{0}{website:istqb:AdvancedNutshell}{nty/global/}
\abx@aux@defaultrefcontext{0}{website:istqb:history}{nty/global/}
\abx@aux@defaultrefcontext{0}{website:istqb:ExpertNutshell}{nty/global/}
\abx@aux@defaultrefcontext{0}{website:istqb:vision_mission}{nty/global/}
\abx@aux@defaultrefcontext{0}{website:istqb:FoundationNutshell}{nty/global/}
\ttl@finishall
\global\@namedef{scr@dte@section@lastmaxnumwidth}{11.47185pt}
\global\@namedef{scr@dte@subsection@lastmaxnumwidth}{19.79993pt}
\global\@namedef{scr@dte@subsubsection@lastmaxnumwidth}{28.79993pt}
